info face="Aniron" size=-32 bold=0 italic=0 charset="" unicode=1 stretchH=100 smooth=1 aa=1 padding=0,0,0,0 spacing=1,1 outline=0
common lineHeight=66 base=47 scaleW=1024 scaleH=1024 pages=1 packed=0 alphaChnl=0 redChnl=4 greenChnl=4 blueChnl=4
page id=0 file="aniron_0.png"
chars count=95
char id=32   x=209   y=134   width=3     height=66    xoffset=-1    yoffset=0     xadvance=17    page=0  chnl=15
char id=33   x=160   y=134   width=7     height=66    xoffset=1     yoffset=0     xadvance=10    page=0  chnl=15
char id=34   x=65    y=134   width=10    height=66    xoffset=1     yoffset=0     xadvance=13    page=0  chnl=15
char id=35   x=965   y=67    width=14    height=66    xoffset=1     yoffset=0     xadvance=22    page=0  chnl=15
char id=36   x=918   y=67    width=16    height=66    xoffset=2     yoffset=0     xadvance=21    page=0  chnl=15
char id=37   x=525   y=67    width=21    height=66    xoffset=0     yoffset=0     xadvance=26    page=0  chnl=15
char id=38   x=867   y=0     width=32    height=66    xoffset=0     yoffset=0     xadvance=35    page=0  chnl=15
char id=39   x=198   y=134   width=5     height=66    xoffset=1     yoffset=0     xadvance=10    page=0  chnl=15
char id=40   x=115   y=134   width=8     height=66    xoffset=0     yoffset=0     xadvance=12    page=0  chnl=15
char id=41   x=151   y=134   width=8     height=66    xoffset=0     yoffset=0     xadvance=13    page=0  chnl=15
char id=42   x=935   y=67    width=14    height=66    xoffset=0     yoffset=0     xadvance=18    page=0  chnl=15
char id=43   x=1009  y=67    width=13    height=66    xoffset=1     yoffset=0     xadvance=20    page=0  chnl=15
char id=44   x=176   y=134   width=7     height=66    xoffset=0     yoffset=0     xadvance=10    page=0  chnl=15
char id=45   x=950   y=67    width=14    height=66    xoffset=0     yoffset=0     xadvance=18    page=0  chnl=15
char id=46   x=106   y=134   width=8     height=66    xoffset=0     yoffset=0     xadvance=10    page=0  chnl=15
char id=47   x=842   y=67    width=19    height=66    xoffset=1     yoffset=0     xadvance=26    page=0  chnl=15
char id=48   x=822   y=67    width=19    height=66    xoffset=0     yoffset=0     xadvance=21    page=0  chnl=15
char id=49   x=0     y=134   width=12    height=66    xoffset=0     yoffset=0     xadvance=13    page=0  chnl=15
char id=50   x=569   y=67    width=21    height=66    xoffset=0     yoffset=0     xadvance=22    page=0  chnl=15
char id=51   x=782   y=67    width=19    height=66    xoffset=0     yoffset=0     xadvance=21    page=0  chnl=15
char id=52   x=479   y=67    width=22    height=66    xoffset=0     yoffset=0     xadvance=24    page=0  chnl=15
char id=53   x=762   y=67    width=19    height=66    xoffset=0     yoffset=0     xadvance=22    page=0  chnl=15
char id=54   x=862   y=67    width=18    height=66    xoffset=0     yoffset=0     xadvance=22    page=0  chnl=15
char id=55   x=547   y=67    width=21    height=66    xoffset=0     yoffset=0     xadvance=22    page=0  chnl=15
char id=56   x=741   y=67    width=20    height=66    xoffset=0     yoffset=0     xadvance=21    page=0  chnl=15
char id=57   x=881   y=67    width=18    height=66    xoffset=0     yoffset=0     xadvance=22    page=0  chnl=15
char id=58   x=133   y=134   width=8     height=66    xoffset=0     yoffset=0     xadvance=10    page=0  chnl=15
char id=59   x=168   y=134   width=7     height=66    xoffset=0     yoffset=0     xadvance=10    page=0  chnl=15
char id=60   x=52    y=134   width=12    height=66    xoffset=0     yoffset=0     xadvance=16    page=0  chnl=15
char id=61   x=980   y=67    width=14    height=66    xoffset=1     yoffset=0     xadvance=22    page=0  chnl=15
char id=62   x=26    y=134   width=12    height=66    xoffset=0     yoffset=0     xadvance=14    page=0  chnl=15
char id=63   x=456   y=67    width=22    height=66    xoffset=1     yoffset=0     xadvance=24    page=0  chnl=15
char id=64   x=695   y=0     width=34    height=66    xoffset=0     yoffset=0     xadvance=39    page=0  chnl=15
char id=65   x=586   y=0     width=36    height=66    xoffset=0     yoffset=0     xadvance=38    page=0  chnl=15
char id=66   x=964   y=0     width=30    height=66    xoffset=-1    yoffset=0     xadvance=31    page=0  chnl=15
char id=67   x=995   y=0     width=28    height=66    xoffset=0     yoffset=0     xadvance=31    page=0  chnl=15
char id=68   x=833   y=0     width=33    height=66    xoffset=0     yoffset=0     xadvance=36    page=0  chnl=15
char id=69   x=30    y=67    width=29    height=66    xoffset=0     yoffset=0     xadvance=30    page=0  chnl=15
char id=70   x=90    y=67    width=29    height=66    xoffset=0     yoffset=0     xadvance=29    page=0  chnl=15
char id=71   x=623   y=0     width=35    height=66    xoffset=0     yoffset=0     xadvance=38    page=0  chnl=15
char id=72   x=309   y=0     width=42    height=66    xoffset=-2    yoffset=0     xadvance=43    page=0  chnl=15
char id=73   x=900   y=67    width=17    height=66    xoffset=0     yoffset=0     xadvance=18    page=0  chnl=15
char id=74   x=13    y=134   width=12    height=66    xoffset=0     yoffset=0     xadvance=17    page=0  chnl=15
char id=75   x=474   y=0     width=37    height=66    xoffset=-1    yoffset=0     xadvance=38    page=0  chnl=15
char id=76   x=659   y=0     width=35    height=66    xoffset=0     yoffset=0     xadvance=36    page=0  chnl=15
char id=77   x=0     y=0     width=65    height=66    xoffset=-1    yoffset=0     xadvance=66    page=0  chnl=15
char id=78   x=177   y=0     width=43    height=66    xoffset=-1    yoffset=0     xadvance=45    page=0  chnl=15
char id=79   x=512   y=0     width=36    height=66    xoffset=0     yoffset=0     xadvance=39    page=0  chnl=15
char id=80   x=265   y=0     width=43    height=66    xoffset=-1    yoffset=0     xadvance=44    page=0  chnl=15
char id=81   x=436   y=0     width=37    height=66    xoffset=0     yoffset=0     xadvance=38    page=0  chnl=15
char id=82   x=765   y=0     width=33    height=66    xoffset=0     yoffset=0     xadvance=36    page=0  chnl=15
char id=83   x=0     y=67    width=29    height=66    xoffset=0     yoffset=0     xadvance=30    page=0  chnl=15
char id=84   x=730   y=0     width=34    height=66    xoffset=0     yoffset=0     xadvance=34    page=0  chnl=15
char id=85   x=395   y=0     width=40    height=66    xoffset=0     yoffset=0     xadvance=40    page=0  chnl=15
char id=86   x=549   y=0     width=36    height=66    xoffset=0     yoffset=0     xadvance=38    page=0  chnl=15
char id=87   x=66    y=0     width=65    height=66    xoffset=-1    yoffset=0     xadvance=64    page=0  chnl=15
char id=88   x=900   y=0     width=32    height=66    xoffset=-1    yoffset=0     xadvance=33    page=0  chnl=15
char id=89   x=352   y=0     width=42    height=66    xoffset=-1    yoffset=0     xadvance=42    page=0  chnl=15
char id=90   x=799   y=0     width=33    height=66    xoffset=0     yoffset=0     xadvance=36    page=0  chnl=15
char id=91   x=96    y=134   width=9     height=66    xoffset=0     yoffset=0     xadvance=11    page=0  chnl=15
char id=92   x=802   y=67    width=19    height=66    xoffset=1     yoffset=0     xadvance=26    page=0  chnl=15
char id=93   x=76    y=134   width=9     height=66    xoffset=0     yoffset=0     xadvance=13    page=0  chnl=15
char id=94   x=995   y=67    width=13    height=66    xoffset=0     yoffset=0     xadvance=16    page=0  chnl=15
char id=95   x=591   y=67    width=21    height=66    xoffset=-1    yoffset=0     xadvance=19    page=0  chnl=15
char id=96   x=192   y=134   width=5     height=66    xoffset=1     yoffset=0     xadvance=10    page=0  chnl=15
char id=97   x=283   y=67    width=25    height=66    xoffset=0     yoffset=0     xadvance=24    page=0  chnl=15
char id=98   x=613   y=67    width=21    height=66    xoffset=-1    yoffset=0     xadvance=23    page=0  chnl=15
char id=99   x=678   y=67    width=20    height=66    xoffset=0     yoffset=0     xadvance=23    page=0  chnl=15
char id=100  x=385   y=67    width=23    height=66    xoffset=0     yoffset=0     xadvance=26    page=0  chnl=15
char id=101  x=699   y=67    width=20    height=66    xoffset=0     yoffset=0     xadvance=22    page=0  chnl=15
char id=102  x=720   y=67    width=20    height=66    xoffset=0     yoffset=0     xadvance=21    page=0  chnl=15
char id=103  x=360   y=67    width=24    height=66    xoffset=0     yoffset=0     xadvance=26    page=0  chnl=15
char id=104  x=149   y=67    width=27    height=66    xoffset=0     yoffset=0     xadvance=30    page=0  chnl=15
char id=105  x=39    y=134   width=12    height=66    xoffset=0     yoffset=0     xadvance=14    page=0  chnl=15
char id=106  x=124   y=134   width=8     height=66    xoffset=1     yoffset=0     xadvance=13    page=0  chnl=15
char id=107  x=257   y=67    width=25    height=66    xoffset=0     yoffset=0     xadvance=26    page=0  chnl=15
char id=108  x=335   y=67    width=24    height=66    xoffset=0     yoffset=0     xadvance=24    page=0  chnl=15
char id=109  x=132   y=0     width=44    height=66    xoffset=0     yoffset=0     xadvance=45    page=0  chnl=15
char id=110  x=60    y=67    width=29    height=66    xoffset=0     yoffset=0     xadvance=31    page=0  chnl=15
char id=111  x=231   y=67    width=25    height=66    xoffset=0     yoffset=0     xadvance=27    page=0  chnl=15
char id=112  x=933   y=0     width=30    height=66    xoffset=-1    yoffset=0     xadvance=31    page=0  chnl=15
char id=113  x=205   y=67    width=25    height=66    xoffset=0     yoffset=0     xadvance=26    page=0  chnl=15
char id=114  x=433   y=67    width=22    height=66    xoffset=0     yoffset=0     xadvance=23    page=0  chnl=15
char id=115  x=657   y=67    width=20    height=66    xoffset=0     yoffset=0     xadvance=21    page=0  chnl=15
char id=116  x=409   y=67    width=23    height=66    xoffset=0     yoffset=0     xadvance=24    page=0  chnl=15
char id=117  x=177   y=67    width=27    height=66    xoffset=0     yoffset=0     xadvance=28    page=0  chnl=15
char id=118  x=309   y=67    width=25    height=66    xoffset=0     yoffset=0     xadvance=27    page=0  chnl=15
char id=119  x=221   y=0     width=43    height=66    xoffset=0     yoffset=0     xadvance=44    page=0  chnl=15
char id=120  x=635   y=67    width=21    height=66    xoffset=1     yoffset=0     xadvance=23    page=0  chnl=15
char id=121  x=120   y=67    width=28    height=66    xoffset=-1    yoffset=0     xadvance=29    page=0  chnl=15
char id=122  x=502   y=67    width=22    height=66    xoffset=0     yoffset=0     xadvance=25    page=0  chnl=15
char id=123  x=184   y=134   width=7     height=66    xoffset=1     yoffset=0     xadvance=11    page=0  chnl=15
char id=124  x=204   y=134   width=4     height=66    xoffset=0     yoffset=0     xadvance=7     page=0  chnl=15
char id=125  x=142   y=134   width=8     height=66    xoffset=0     yoffset=0     xadvance=12    page=0  chnl=15
char id=126  x=86    y=134   width=9     height=66    xoffset=0     yoffset=0     xadvance=10    page=0  chnl=15
