info face="Arial" size=-32 bold=0 italic=0 charset="" unicode=1 stretchH=90 smooth=1 aa=1 padding=0,0,0,0 spacing=10,10 outline=0
common lineHeight=33 base=27 scaleW=1024 scaleH=1024 pages=1 packed=0 alphaChnl=0 redChnl=4 greenChnl=4 blueChnl=4
page id=0 file="arial_0.png"
chars count=95
char id=32   x=341   y=86    width=3     height=33    xoffset=-1    yoffset=0     xadvance=9     page=0  chnl=15
char id=33   x=253   y=86    width=5     height=33    xoffset=3     yoffset=0     xadvance=9     page=0  chnl=15
char id=34   x=118   y=86    width=9     height=33    xoffset=1     yoffset=0     xadvance=11    page=0  chnl=15
char id=35   x=686   y=0     width=19    height=33    xoffset=-1    yoffset=0     xadvance=18    page=0  chnl=15
char id=36   x=189   y=43    width=16    height=33    xoffset=1     yoffset=0     xadvance=18    page=0  chnl=15
char id=37   x=82    y=0     width=26    height=33    xoffset=1     yoffset=0     xadvance=29    page=0  chnl=15
char id=38   x=507   y=0     width=20    height=33    xoffset=1     yoffset=0     xadvance=21    page=0  chnl=15
char id=39   x=313   y=86    width=4     height=33    xoffset=1     yoffset=0     xadvance=6     page=0  chnl=15
char id=40   x=99    y=86    width=9     height=33    xoffset=1     yoffset=0     xadvance=11    page=0  chnl=15
char id=41   x=20    y=86    width=10    height=33    xoffset=1     yoffset=0     xadvance=11    page=0  chnl=15
char id=42   x=882   y=43    width=12    height=33    xoffset=0     yoffset=0     xadvance=13    page=0  chnl=15
char id=43   x=943   y=0     width=17    height=33    xoffset=1     yoffset=0     xadvance=19    page=0  chnl=15
char id=44   x=238   y=86    width=5     height=33    xoffset=2     yoffset=0     xadvance=9     page=0  chnl=15
char id=45   x=904   y=43    width=11    height=33    xoffset=0     yoffset=0     xadvance=11    page=0  chnl=15
char id=46   x=208   y=86    width=5     height=33    xoffset=2     yoffset=0     xadvance=9     page=0  chnl=15
char id=47   x=40    y=86    width=10    height=33    xoffset=-1    yoffset=0     xadvance=9     page=0  chnl=15
char id=48   x=267   y=43    width=16    height=33    xoffset=1     yoffset=0     xadvance=18    page=0  chnl=15
char id=49   x=988   y=43    width=10    height=33    xoffset=3     yoffset=0     xadvance=18    page=0  chnl=15
char id=50   x=997   y=0     width=17    height=33    xoffset=0     yoffset=0     xadvance=18    page=0  chnl=15
char id=51   x=475   y=43    width=16    height=33    xoffset=1     yoffset=0     xadvance=18    page=0  chnl=15
char id=52   x=0     y=43    width=17    height=33    xoffset=0     yoffset=0     xadvance=18    page=0  chnl=15
char id=53   x=241   y=43    width=16    height=33    xoffset=1     yoffset=0     xadvance=18    page=0  chnl=15
char id=54   x=135   y=43    width=17    height=33    xoffset=0     yoffset=0     xadvance=18    page=0  chnl=15
char id=55   x=423   y=43    width=16    height=33    xoffset=1     yoffset=0     xadvance=18    page=0  chnl=15
char id=56   x=397   y=43    width=16    height=33    xoffset=1     yoffset=0     xadvance=18    page=0  chnl=15
char id=57   x=371   y=43    width=16    height=33    xoffset=1     yoffset=0     xadvance=18    page=0  chnl=15
char id=58   x=268   y=86    width=5     height=33    xoffset=2     yoffset=0     xadvance=9     page=0  chnl=15
char id=59   x=283   y=86    width=5     height=33    xoffset=2     yoffset=0     xadvance=9     page=0  chnl=15
char id=60   x=27    y=43    width=17    height=33    xoffset=1     yoffset=0     xadvance=19    page=0  chnl=15
char id=61   x=54    y=43    width=17    height=33    xoffset=1     yoffset=0     xadvance=19    page=0  chnl=15
char id=62   x=81    y=43    width=17    height=33    xoffset=1     yoffset=0     xadvance=19    page=0  chnl=15
char id=63   x=319   y=43    width=16    height=33    xoffset=1     yoffset=0     xadvance=18    page=0  chnl=15
char id=64   x=42    y=0     width=30    height=33    xoffset=1     yoffset=0     xadvance=33    page=0  chnl=15
char id=65   x=319   y=0     width=22    height=33    xoffset=0     yoffset=0     xadvance=21    page=0  chnl=15
char id=66   x=831   y=0     width=18    height=33    xoffset=2     yoffset=0     xadvance=21    page=0  chnl=15
char id=67   x=383   y=0     width=21    height=33    xoffset=1     yoffset=0     xadvance=23    page=0  chnl=15
char id=68   x=537   y=0     width=20    height=33    xoffset=2     yoffset=0     xadvance=23    page=0  chnl=15
char id=69   x=859   y=0     width=18    height=33    xoffset=2     yoffset=0     xadvance=21    page=0  chnl=15
char id=70   x=108   y=43    width=17    height=33    xoffset=2     yoffset=0     xadvance=20    page=0  chnl=15
char id=71   x=253   y=0     width=23    height=33    xoffset=1     yoffset=0     xadvance=25    page=0  chnl=15
char id=72   x=744   y=0     width=19    height=33    xoffset=2     yoffset=0     xadvance=23    page=0  chnl=15
char id=73   x=298   y=86    width=5     height=33    xoffset=2     yoffset=0     xadvance=9     page=0  chnl=15
char id=74   x=858   y=43    width=14    height=33    xoffset=0     yoffset=0     xadvance=16    page=0  chnl=15
char id=75   x=627   y=0     width=20    height=33    xoffset=2     yoffset=0     xadvance=21    page=0  chnl=15
char id=76   x=449   y=43    width=16    height=33    xoffset=2     yoffset=0     xadvance=18    page=0  chnl=15
char id=77   x=187   y=0     width=23    height=33    xoffset=2     yoffset=0     xadvance=27    page=0  chnl=15
char id=78   x=715   y=0     width=19    height=33    xoffset=2     yoffset=0     xadvance=23    page=0  chnl=15
char id=79   x=220   y=0     width=23    height=33    xoffset=1     yoffset=0     xadvance=25    page=0  chnl=15
char id=80   x=915   y=0     width=18    height=33    xoffset=2     yoffset=0     xadvance=21    page=0  chnl=15
char id=81   x=153   y=0     width=24    height=33    xoffset=1     yoffset=0     xadvance=25    page=0  chnl=15
char id=82   x=414   y=0     width=21    height=33    xoffset=2     yoffset=0     xadvance=23    page=0  chnl=15
char id=83   x=657   y=0     width=19    height=33    xoffset=1     yoffset=0     xadvance=21    page=0  chnl=15
char id=84   x=802   y=0     width=19    height=33    xoffset=0     yoffset=0     xadvance=20    page=0  chnl=15
char id=85   x=773   y=0     width=19    height=33    xoffset=2     yoffset=0     xadvance=23    page=0  chnl=15
char id=86   x=351   y=0     width=22    height=33    xoffset=0     yoffset=0     xadvance=21    page=0  chnl=15
char id=87   x=0     y=0     width=32    height=33    xoffset=0     yoffset=0     xadvance=30    page=0  chnl=15
char id=88   x=476   y=0     width=21    height=33    xoffset=0     yoffset=0     xadvance=21    page=0  chnl=15
char id=89   x=445   y=0     width=21    height=33    xoffset=0     yoffset=0     xadvance=21    page=0  chnl=15
char id=90   x=597   y=0     width=20    height=33    xoffset=0     yoffset=0     xadvance=20    page=0  chnl=15
char id=91   x=155   y=86    width=8     height=33    xoffset=1     yoffset=0     xadvance=9     page=0  chnl=15
char id=92   x=0     y=86    width=10    height=33    xoffset=0     yoffset=0     xadvance=9     page=0  chnl=15
char id=93   x=173   y=86    width=8     height=33    xoffset=0     yoffset=0     xadvance=9     page=0  chnl=15
char id=94   x=810   y=43    width=14    height=33    xoffset=0     yoffset=0     xadvance=15    page=0  chnl=15
char id=95   x=567   y=0     width=20    height=33    xoffset=-1    yoffset=0     xadvance=18    page=0  chnl=15
char id=96   x=191   y=86    width=7     height=33    xoffset=1     yoffset=0     xadvance=11    page=0  chnl=15
char id=97   x=527   y=43    width=16    height=33    xoffset=0     yoffset=0     xadvance=18    page=0  chnl=15
char id=98   x=293   y=43    width=16    height=33    xoffset=1     yoffset=0     xadvance=18    page=0  chnl=15
char id=99   x=834   y=43    width=14    height=33    xoffset=1     yoffset=0     xadvance=16    page=0  chnl=15
char id=100  x=501   y=43    width=16    height=33    xoffset=0     yoffset=0     xadvance=18    page=0  chnl=15
char id=101  x=162   y=43    width=17    height=33    xoffset=0     yoffset=0     xadvance=18    page=0  chnl=15
char id=102  x=925   y=43    width=11    height=33    xoffset=0     yoffset=0     xadvance=9     page=0  chnl=15
char id=103  x=345   y=43    width=16    height=33    xoffset=0     yoffset=0     xadvance=18    page=0  chnl=15
char id=104  x=631   y=43    width=16    height=33    xoffset=1     yoffset=0     xadvance=18    page=0  chnl=15
char id=105  x=1008  y=43    width=5     height=33    xoffset=1     yoffset=0     xadvance=7     page=0  chnl=15
char id=106  x=137   y=86    width=8     height=33    xoffset=-2    yoffset=0     xadvance=7     page=0  chnl=15
char id=107  x=760   y=43    width=15    height=33    xoffset=1     yoffset=0     xadvance=16    page=0  chnl=15
char id=108  x=223   y=86    width=5     height=33    xoffset=1     yoffset=0     xadvance=7     page=0  chnl=15
char id=109  x=118   y=0     width=25    height=33    xoffset=1     yoffset=0     xadvance=27    page=0  chnl=15
char id=110  x=215   y=43    width=16    height=33    xoffset=1     yoffset=0     xadvance=18    page=0  chnl=15
char id=111  x=970   y=0     width=17    height=33    xoffset=0     yoffset=0     xadvance=18    page=0  chnl=15
char id=112  x=553   y=43    width=16    height=33    xoffset=1     yoffset=0     xadvance=18    page=0  chnl=15
char id=113  x=579   y=43    width=16    height=33    xoffset=0     yoffset=0     xadvance=18    page=0  chnl=15
char id=114  x=60    y=86    width=10    height=33    xoffset=2     yoffset=0     xadvance=11    page=0  chnl=15
char id=115  x=605   y=43    width=16    height=33    xoffset=0     yoffset=0     xadvance=16    page=0  chnl=15
char id=116  x=80    y=86    width=9     height=33    xoffset=0     yoffset=0     xadvance=9     page=0  chnl=15
char id=117  x=657   y=43    width=16    height=33    xoffset=1     yoffset=0     xadvance=18    page=0  chnl=15
char id=118  x=683   y=43    width=16    height=33    xoffset=0     yoffset=0     xadvance=16    page=0  chnl=15
char id=119  x=286   y=0     width=23    height=33    xoffset=0     yoffset=0     xadvance=23    page=0  chnl=15
char id=120  x=735   y=43    width=15    height=33    xoffset=0     yoffset=0     xadvance=16    page=0  chnl=15
char id=121  x=785   y=43    width=15    height=33    xoffset=0     yoffset=0     xadvance=16    page=0  chnl=15
char id=122  x=709   y=43    width=16    height=33    xoffset=0     yoffset=0     xadvance=16    page=0  chnl=15
char id=123  x=946   y=43    width=11    height=33    xoffset=0     yoffset=0     xadvance=11    page=0  chnl=15
char id=124  x=327   y=86    width=4     height=33    xoffset=2     yoffset=0     xadvance=8     page=0  chnl=15
char id=125  x=967   y=43    width=11    height=33    xoffset=0     yoffset=0     xadvance=11    page=0  chnl=15
char id=126  x=887   y=0     width=18    height=33    xoffset=1     yoffset=0     xadvance=19    page=0  chnl=15
