info face="Dumbledor 1" size=-32 bold=0 italic=0 charset="" unicode=1 stretchH=100 smooth=1 aa=1 padding=0,0,0,0 spacing=1,1 outline=0
common lineHeight=31 base=24 scaleW=128 scaleH=128 pages=3 packed=0 alphaChnl=0 redChnl=4 greenChnl=4 blueChnl=4
page id=0 file="dumbledore_0.png"
page id=1 file="dumbledore_1.png"
page id=2 file="dumbledore_2.png"
chars count=95
char id=32   x=42    y=96    width=3     height=31    xoffset=-1    yoffset=0     xadvance=9     page=2  chnl=15
char id=33   x=0     y=96    width=6     height=31    xoffset=0     yoffset=0     xadvance=6     page=2  chnl=15
char id=34   x=119   y=64    width=6     height=31    xoffset=0     yoffset=0     xadvance=6     page=2  chnl=15
char id=35   x=27    y=32    width=12    height=31    xoffset=1     yoffset=0     xadvance=13    page=2  chnl=15
char id=36   x=99    y=0     width=17    height=31    xoffset=-1    yoffset=0     xadvance=16    page=1  chnl=15
char id=37   x=108   y=96    width=19    height=31    xoffset=0     yoffset=0     xadvance=19    page=0  chnl=15
char id=38   x=0     y=32    width=17    height=31    xoffset=0     yoffset=0     xadvance=17    page=1  chnl=15
char id=39   x=37    y=96    width=4     height=31    xoffset=0     yoffset=0     xadvance=3     page=2  chnl=15
char id=40   x=111   y=64    width=7     height=31    xoffset=0     yoffset=0     xadvance=7     page=2  chnl=15
char id=41   x=61    y=64    width=8     height=31    xoffset=-1    yoffset=0     xadvance=7     page=2  chnl=15
char id=42   x=51    y=64    width=9     height=31    xoffset=1     yoffset=0     xadvance=9     page=2  chnl=15
char id=43   x=91    y=32    width=11    height=31    xoffset=1     yoffset=0     xadvance=12    page=2  chnl=15
char id=44   x=26    y=96    width=5     height=31    xoffset=0     yoffset=0     xadvance=4     page=2  chnl=15
char id=45   x=103   y=32    width=11    height=31    xoffset=1     yoffset=0     xadvance=12    page=2  chnl=15
char id=46   x=20    y=96    width=5     height=31    xoffset=0     yoffset=0     xadvance=4     page=2  chnl=15
char id=47   x=18    y=32    width=17    height=31    xoffset=1     yoffset=0     xadvance=17    page=1  chnl=15
char id=48   x=42    y=0     width=19    height=31    xoffset=-1    yoffset=0     xadvance=18    page=1  chnl=15
char id=49   x=87    y=64    width=7     height=31    xoffset=1     yoffset=0     xadvance=8     page=2  chnl=15
char id=50   x=54    y=32    width=16    height=31    xoffset=0     yoffset=0     xadvance=16    page=1  chnl=15
char id=51   x=34    y=64    width=16    height=31    xoffset=-1    yoffset=0     xadvance=15    page=1  chnl=15
char id=52   x=51    y=64    width=16    height=31    xoffset=1     yoffset=0     xadvance=17    page=1  chnl=15
char id=53   x=101   y=64    width=15    height=31    xoffset=0     yoffset=0     xadvance=15    page=1  chnl=15
char id=54   x=113   y=0     width=14    height=31    xoffset=0     yoffset=0     xadvance=14    page=0  chnl=15
char id=55   x=71    y=32    width=16    height=31    xoffset=1     yoffset=0     xadvance=17    page=1  chnl=15
char id=56   x=0     y=64    width=16    height=31    xoffset=-1    yoffset=0     xadvance=15    page=1  chnl=15
char id=57   x=85    y=64    width=15    height=31    xoffset=0     yoffset=0     xadvance=14    page=1  chnl=15
char id=58   x=122   y=32    width=5     height=31    xoffset=0     yoffset=0     xadvance=4     page=1  chnl=15
char id=59   x=14    y=96    width=5     height=31    xoffset=0     yoffset=0     xadvance=4     page=2  chnl=15
char id=60   x=0     y=64    width=10    height=31    xoffset=1     yoffset=0     xadvance=10    page=2  chnl=15
char id=61   x=115   y=32    width=11    height=31    xoffset=1     yoffset=0     xadvance=12    page=2  chnl=15
char id=62   x=117   y=0     width=10    height=31    xoffset=0     yoffset=0     xadvance=10    page=1  chnl=15
char id=63   x=74    y=0     width=13    height=31    xoffset=0     yoffset=0     xadvance=12    page=2  chnl=15
char id=64   x=0     y=32    width=24    height=31    xoffset=-1    yoffset=0     xadvance=23    page=0  chnl=15
char id=65   x=95    y=32    width=22    height=31    xoffset=1     yoffset=0     xadvance=23    page=0  chnl=15
char id=66   x=36    y=32    width=17    height=31    xoffset=0     yoffset=0     xadvance=16    page=1  chnl=15
char id=67   x=72    y=32    width=22    height=31    xoffset=0     yoffset=0     xadvance=22    page=0  chnl=15
char id=68   x=87    y=96    width=20    height=31    xoffset=0     yoffset=0     xadvance=19    page=0  chnl=15
char id=69   x=16    y=96    width=15    height=31    xoffset=0     yoffset=0     xadvance=15    page=1  chnl=15
char id=70   x=0     y=96    width=15    height=31    xoffset=-1    yoffset=0     xadvance=14    page=1  chnl=15
char id=71   x=49    y=32    width=22    height=31    xoffset=0     yoffset=0     xadvance=22    page=0  chnl=15
char id=72   x=92    y=64    width=21    height=31    xoffset=0     yoffset=0     xadvance=21    page=0  chnl=15
char id=73   x=118   y=32    width=9     height=31    xoffset=0     yoffset=0     xadvance=9     page=0  chnl=15
char id=74   x=70    y=64    width=8     height=31    xoffset=0     yoffset=0     xadvance=8     page=2  chnl=15
char id=75   x=69    y=64    width=22    height=31    xoffset=1     yoffset=0     xadvance=23    page=0  chnl=15
char id=76   x=17    y=64    width=16    height=31    xoffset=1     yoffset=0     xadvance=16    page=1  chnl=15
char id=77   x=61    y=0     width=26    height=31    xoffset=1     yoffset=0     xadvance=27    page=0  chnl=15
char id=78   x=0     y=96    width=21    height=31    xoffset=0     yoffset=0     xadvance=21    page=0  chnl=15
char id=79   x=88    y=0     width=24    height=31    xoffset=0     yoffset=0     xadvance=23    page=0  chnl=15
char id=80   x=88    y=32    width=16    height=31    xoffset=-1    yoffset=0     xadvance=15    page=1  chnl=15
char id=81   x=33    y=0     width=27    height=31    xoffset=0     yoffset=0     xadvance=27    page=0  chnl=15
char id=82   x=62    y=0     width=18    height=31    xoffset=0     yoffset=0     xadvance=18    page=1  chnl=15
char id=83   x=81    y=0     width=17    height=31    xoffset=-1    yoffset=0     xadvance=16    page=1  chnl=15
char id=84   x=23    y=64    width=22    height=31    xoffset=1     yoffset=0     xadvance=23    page=0  chnl=15
char id=85   x=44    y=96    width=21    height=31    xoffset=-1    yoffset=0     xadvance=20    page=0  chnl=15
char id=86   x=46    y=64    width=22    height=31    xoffset=1     yoffset=0     xadvance=23    page=0  chnl=15
char id=87   x=0     y=0     width=32    height=31    xoffset=0     yoffset=0     xadvance=31    page=0  chnl=15
char id=88   x=0     y=64    width=22    height=31    xoffset=0     yoffset=0     xadvance=21    page=0  chnl=15
char id=89   x=66    y=96    width=20    height=31    xoffset=1     yoffset=0     xadvance=20    page=0  chnl=15
char id=90   x=25    y=32    width=23    height=31    xoffset=0     yoffset=0     xadvance=22    page=0  chnl=15
char id=91   x=21    y=64    width=9     height=31    xoffset=0     yoffset=0     xadvance=9     page=2  chnl=15
char id=92   x=64    y=96    width=15    height=31    xoffset=0     yoffset=0     xadvance=15    page=1  chnl=15
char id=93   x=11    y=64    width=9     height=31    xoffset=0     yoffset=0     xadvance=10    page=2  chnl=15
char id=94   x=79    y=32    width=11    height=31    xoffset=0     yoffset=0     xadvance=10    page=2  chnl=15
char id=95   x=22    y=96    width=21    height=31    xoffset=1     yoffset=0     xadvance=22    page=0  chnl=15
char id=96   x=95    y=64    width=7     height=31    xoffset=0     yoffset=0     xadvance=7     page=2  chnl=15
char id=97   x=88    y=0     width=13    height=31    xoffset=-1    yoffset=0     xadvance=12    page=2  chnl=15
char id=98   x=48    y=96    width=15    height=31    xoffset=1     yoffset=0     xadvance=15    page=1  chnl=15
char id=99   x=53    y=32    width=12    height=31    xoffset=0     yoffset=0     xadvance=12    page=2  chnl=15
char id=100  x=80    y=96    width=15    height=31    xoffset=0     yoffset=0     xadvance=15    page=1  chnl=15
char id=101  x=114   y=64    width=13    height=31    xoffset=0     yoffset=0     xadvance=13    page=0  chnl=15
char id=102  x=40    y=32    width=12    height=31    xoffset=-1    yoffset=0     xadvance=10    page=2  chnl=15
char id=103  x=32    y=96    width=15    height=31    xoffset=0     yoffset=0     xadvance=15    page=1  chnl=15
char id=104  x=96    y=96    width=15    height=31    xoffset=-1    yoffset=0     xadvance=14    page=1  chnl=15
char id=105  x=7     y=96    width=6     height=31    xoffset=1     yoffset=0     xadvance=7     page=2  chnl=15
char id=106  x=103   y=64    width=7     height=31    xoffset=0     yoffset=0     xadvance=6     page=2  chnl=15
char id=107  x=45    y=0     width=14    height=31    xoffset=0     yoffset=0     xadvance=13    page=2  chnl=15
char id=108  x=79    y=64    width=7     height=31    xoffset=0     yoffset=0     xadvance=7     page=2  chnl=15
char id=109  x=21    y=0     width=20    height=31    xoffset=0     yoffset=0     xadvance=19    page=1  chnl=15
char id=110  x=102   y=0     width=13    height=31    xoffset=1     yoffset=0     xadvance=13    page=2  chnl=15
char id=111  x=30    y=0     width=14    height=31    xoffset=-1    yoffset=0     xadvance=13    page=2  chnl=15
char id=112  x=68    y=64    width=16    height=31    xoffset=-1    yoffset=0     xadvance=15    page=1  chnl=15
char id=113  x=15    y=0     width=14    height=31    xoffset=0     yoffset=0     xadvance=14    page=2  chnl=15
char id=114  x=66    y=32    width=12    height=31    xoffset=-1    yoffset=0     xadvance=11    page=2  chnl=15
char id=115  x=14    y=32    width=12    height=31    xoffset=0     yoffset=0     xadvance=11    page=2  chnl=15
char id=116  x=117   y=64    width=10    height=31    xoffset=0     yoffset=0     xadvance=10    page=1  chnl=15
char id=117  x=0     y=32    width=13    height=31    xoffset=0     yoffset=0     xadvance=12    page=2  chnl=15
char id=118  x=60    y=0     width=13    height=31    xoffset=1     yoffset=0     xadvance=14    page=2  chnl=15
char id=119  x=0     y=0     width=20    height=31    xoffset=0     yoffset=0     xadvance=19    page=1  chnl=15
char id=120  x=105   y=32    width=16    height=31    xoffset=0     yoffset=0     xadvance=15    page=1  chnl=15
char id=121  x=0     y=0     width=14    height=31    xoffset=0     yoffset=0     xadvance=14    page=2  chnl=15
char id=122  x=112   y=96    width=14    height=31    xoffset=1     yoffset=0     xadvance=14    page=1  chnl=15
char id=123  x=41    y=64    width=9     height=31    xoffset=0     yoffset=0     xadvance=8     page=2  chnl=15
char id=124  x=32    y=96    width=4     height=31    xoffset=-1    yoffset=0     xadvance=4     page=2  chnl=15
char id=125  x=31    y=64    width=9     height=31    xoffset=0     yoffset=0     xadvance=8     page=2  chnl=15
char id=126  x=116   y=0     width=11    height=31    xoffset=1     yoffset=0     xadvance=12    page=2  chnl=15
