info face="Dumbledor 3" size=-32 bold=0 italic=0 charset="" unicode=1 stretchH=100 smooth=1 aa=1 padding=0,0,0,0 spacing=1,1 outline=0
common lineHeight=31 base=24 scaleW=1024 scaleH=1024 pages=1 packed=0 alphaChnl=0 redChnl=4 greenChnl=4 blueChnl=4
page id=0 file="dumbledore3_0.png"
chars count=95
char id=32   x=414   y=32    width=3     height=31    xoffset=-1    yoffset=0     xadvance=9     page=0  chnl=15
char id=33   x=367   y=32    width=6     height=31    xoffset=0     yoffset=0     xadvance=6     page=0  chnl=15
char id=34   x=360   y=32    width=6     height=31    xoffset=0     yoffset=0     xadvance=6     page=0  chnl=15
char id=35   x=1011  y=0     width=12    height=31    xoffset=1     yoffset=0     xadvance=13    page=0  chnl=15
char id=36   x=549   y=0     width=17    height=31    xoffset=-1    yoffset=0     xadvance=16    page=0  chnl=15
char id=37   x=471   y=0     width=19    height=31    xoffset=0     yoffset=0     xadvance=19    page=0  chnl=15
char id=38   x=567   y=0     width=17    height=31    xoffset=0     yoffset=0     xadvance=17    page=0  chnl=15
char id=39   x=404   y=32    width=4     height=31    xoffset=0     yoffset=0     xadvance=3     page=0  chnl=15
char id=40   x=320   y=32    width=7     height=31    xoffset=0     yoffset=0     xadvance=7     page=0  chnl=15
char id=41   x=294   y=32    width=8     height=31    xoffset=-1    yoffset=0     xadvance=7     page=0  chnl=15
char id=42   x=264   y=32    width=9     height=31    xoffset=1     yoffset=0     xadvance=9     page=0  chnl=15
char id=43   x=163   y=32    width=11    height=31    xoffset=1     yoffset=0     xadvance=12    page=0  chnl=15
char id=44   x=398   y=32    width=5     height=31    xoffset=0     yoffset=0     xadvance=4     page=0  chnl=15
char id=45   x=175   y=32    width=11    height=31    xoffset=1     yoffset=0     xadvance=12    page=0  chnl=15
char id=46   x=392   y=32    width=5     height=31    xoffset=0     yoffset=0     xadvance=4     page=0  chnl=15
char id=47   x=621   y=0     width=17    height=31    xoffset=1     yoffset=0     xadvance=17    page=0  chnl=15
char id=48   x=491   y=0     width=19    height=31    xoffset=-1    yoffset=0     xadvance=18    page=0  chnl=15
char id=49   x=352   y=32    width=7     height=31    xoffset=1     yoffset=0     xadvance=8     page=0  chnl=15
char id=50   x=656   y=0     width=16    height=31    xoffset=0     yoffset=0     xadvance=16    page=0  chnl=15
char id=51   x=690   y=0     width=16    height=31    xoffset=-1    yoffset=0     xadvance=15    page=0  chnl=15
char id=52   x=724   y=0     width=16    height=31    xoffset=1     yoffset=0     xadvance=17    page=0  chnl=15
char id=53   x=840   y=0     width=15    height=31    xoffset=0     yoffset=0     xadvance=15    page=0  chnl=15
char id=54   x=936   y=0     width=14    height=31    xoffset=0     yoffset=0     xadvance=14    page=0  chnl=15
char id=55   x=741   y=0     width=16    height=31    xoffset=1     yoffset=0     xadvance=17    page=0  chnl=15
char id=56   x=758   y=0     width=16    height=31    xoffset=-1    yoffset=0     xadvance=15    page=0  chnl=15
char id=57   x=824   y=0     width=15    height=31    xoffset=0     yoffset=0     xadvance=14    page=0  chnl=15
char id=58   x=386   y=32    width=5     height=31    xoffset=0     yoffset=0     xadvance=4     page=0  chnl=15
char id=59   x=380   y=32    width=5     height=31    xoffset=0     yoffset=0     xadvance=4     page=0  chnl=15
char id=60   x=222   y=32    width=10    height=31    xoffset=1     yoffset=0     xadvance=10    page=0  chnl=15
char id=61   x=151   y=32    width=11    height=31    xoffset=1     yoffset=0     xadvance=12    page=0  chnl=15
char id=62   x=211   y=32    width=10    height=31    xoffset=0     yoffset=0     xadvance=10    page=0  chnl=15
char id=63   x=29    y=32    width=13    height=31    xoffset=0     yoffset=0     xadvance=12    page=0  chnl=15
char id=64   x=85    y=0     width=24    height=31    xoffset=-1    yoffset=0     xadvance=23    page=0  chnl=15
char id=65   x=205   y=0     width=22    height=31    xoffset=1     yoffset=0     xadvance=23    page=0  chnl=15
char id=66   x=603   y=0     width=17    height=31    xoffset=0     yoffset=0     xadvance=16    page=0  chnl=15
char id=67   x=182   y=0     width=22    height=31    xoffset=0     yoffset=0     xadvance=22    page=0  chnl=15
char id=68   x=408   y=0     width=20    height=31    xoffset=0     yoffset=0     xadvance=19    page=0  chnl=15
char id=69   x=920   y=0     width=15    height=31    xoffset=0     yoffset=0     xadvance=15    page=0  chnl=15
char id=70   x=792   y=0     width=15    height=31    xoffset=-1    yoffset=0     xadvance=14    page=0  chnl=15
char id=71   x=159   y=0     width=22    height=31    xoffset=0     yoffset=0     xadvance=22    page=0  chnl=15
char id=72   x=320   y=0     width=21    height=31    xoffset=0     yoffset=0     xadvance=21    page=0  chnl=15
char id=73   x=328   y=32    width=7     height=31    xoffset=1     yoffset=0     xadvance=9     page=0  chnl=15
char id=74   x=303   y=32    width=8     height=31    xoffset=0     yoffset=0     xadvance=8     page=0  chnl=15
char id=75   x=297   y=0     width=22    height=31    xoffset=1     yoffset=0     xadvance=23    page=0  chnl=15
char id=76   x=707   y=0     width=16    height=31    xoffset=1     yoffset=0     xadvance=16    page=0  chnl=15
char id=77   x=33    y=0     width=26    height=31    xoffset=1     yoffset=0     xadvance=27    page=0  chnl=15
char id=78   x=342   y=0     width=21    height=31    xoffset=0     yoffset=0     xadvance=21    page=0  chnl=15
char id=79   x=60    y=0     width=24    height=31    xoffset=0     yoffset=0     xadvance=23    page=0  chnl=15
char id=80   x=673   y=0     width=16    height=31    xoffset=-1    yoffset=0     xadvance=15    page=0  chnl=15
char id=81   x=110   y=0     width=24    height=31    xoffset=0     yoffset=0     xadvance=23    page=0  chnl=15
char id=82   x=530   y=0     width=18    height=31    xoffset=0     yoffset=0     xadvance=18    page=0  chnl=15
char id=83   x=585   y=0     width=17    height=31    xoffset=-1    yoffset=0     xadvance=16    page=0  chnl=15
char id=84   x=251   y=0     width=22    height=31    xoffset=1     yoffset=0     xadvance=23    page=0  chnl=15
char id=85   x=386   y=0     width=21    height=31    xoffset=-1    yoffset=0     xadvance=20    page=0  chnl=15
char id=86   x=274   y=0     width=22    height=31    xoffset=1     yoffset=0     xadvance=23    page=0  chnl=15
char id=87   x=0     y=0     width=32    height=31    xoffset=0     yoffset=0     xadvance=31    page=0  chnl=15
char id=88   x=228   y=0     width=22    height=31    xoffset=0     yoffset=0     xadvance=21    page=0  chnl=15
char id=89   x=511   y=0     width=18    height=31    xoffset=0     yoffset=0     xadvance=17    page=0  chnl=15
char id=90   x=135   y=0     width=23    height=31    xoffset=0     yoffset=0     xadvance=22    page=0  chnl=15
char id=91   x=244   y=32    width=9     height=31    xoffset=0     yoffset=0     xadvance=9     page=0  chnl=15
char id=92   x=856   y=0     width=15    height=31    xoffset=0     yoffset=0     xadvance=15    page=0  chnl=15
char id=93   x=254   y=32    width=9     height=31    xoffset=0     yoffset=0     xadvance=10    page=0  chnl=15
char id=94   x=187   y=32    width=11    height=31    xoffset=0     yoffset=0     xadvance=10    page=0  chnl=15
char id=95   x=364   y=0     width=21    height=31    xoffset=1     yoffset=0     xadvance=22    page=0  chnl=15
char id=96   x=312   y=32    width=7     height=31    xoffset=0     yoffset=0     xadvance=7     page=0  chnl=15
char id=97   x=43    y=32    width=13    height=31    xoffset=-1    yoffset=0     xadvance=12    page=0  chnl=15
char id=98   x=904   y=0     width=15    height=31    xoffset=1     yoffset=0     xadvance=15    page=0  chnl=15
char id=99   x=112   y=32    width=12    height=31    xoffset=0     yoffset=0     xadvance=12    page=0  chnl=15
char id=100  x=888   y=0     width=15    height=31    xoffset=0     yoffset=0     xadvance=15    page=0  chnl=15
char id=101  x=15    y=32    width=13    height=31    xoffset=0     yoffset=0     xadvance=13    page=0  chnl=15
char id=102  x=138   y=32    width=12    height=31    xoffset=-1    yoffset=0     xadvance=10    page=0  chnl=15
char id=103  x=808   y=0     width=15    height=31    xoffset=0     yoffset=0     xadvance=15    page=0  chnl=15
char id=104  x=872   y=0     width=15    height=31    xoffset=-1    yoffset=0     xadvance=14    page=0  chnl=15
char id=105  x=374   y=32    width=5     height=31    xoffset=1     yoffset=0     xadvance=7     page=0  chnl=15
char id=106  x=336   y=32    width=7     height=31    xoffset=0     yoffset=0     xadvance=6     page=0  chnl=15
char id=107  x=951   y=0     width=14    height=31    xoffset=0     yoffset=0     xadvance=13    page=0  chnl=15
char id=108  x=344   y=32    width=7     height=31    xoffset=0     yoffset=0     xadvance=7     page=0  chnl=15
char id=109  x=429   y=0     width=20    height=31    xoffset=0     yoffset=0     xadvance=19    page=0  chnl=15
char id=110  x=57    y=32    width=13    height=31    xoffset=1     yoffset=0     xadvance=13    page=0  chnl=15
char id=111  x=966   y=0     width=14    height=31    xoffset=-1    yoffset=0     xadvance=13    page=0  chnl=15
char id=112  x=639   y=0     width=16    height=31    xoffset=-1    yoffset=0     xadvance=15    page=0  chnl=15
char id=113  x=981   y=0     width=14    height=31    xoffset=0     yoffset=0     xadvance=14    page=0  chnl=15
char id=114  x=125   y=32    width=12    height=31    xoffset=-1    yoffset=0     xadvance=11    page=0  chnl=15
char id=115  x=99    y=32    width=12    height=31    xoffset=0     yoffset=0     xadvance=11    page=0  chnl=15
char id=116  x=233   y=32    width=10    height=31    xoffset=0     yoffset=0     xadvance=10    page=0  chnl=15
char id=117  x=71    y=32    width=13    height=31    xoffset=0     yoffset=0     xadvance=12    page=0  chnl=15
char id=118  x=85    y=32    width=13    height=31    xoffset=1     yoffset=0     xadvance=14    page=0  chnl=15
char id=119  x=450   y=0     width=20    height=31    xoffset=0     yoffset=0     xadvance=19    page=0  chnl=15
char id=120  x=775   y=0     width=16    height=31    xoffset=0     yoffset=0     xadvance=15    page=0  chnl=15
char id=121  x=996   y=0     width=14    height=31    xoffset=0     yoffset=0     xadvance=14    page=0  chnl=15
char id=122  x=0     y=32    width=14    height=31    xoffset=1     yoffset=0     xadvance=14    page=0  chnl=15
char id=123  x=274   y=32    width=9     height=31    xoffset=0     yoffset=0     xadvance=8     page=0  chnl=15
char id=124  x=409   y=32    width=4     height=31    xoffset=-1    yoffset=0     xadvance=4     page=0  chnl=15
char id=125  x=284   y=32    width=9     height=31    xoffset=0     yoffset=0     xadvance=8     page=0  chnl=15
char id=126  x=199   y=32    width=11    height=31    xoffset=1     yoffset=0     xadvance=12    page=0  chnl=15
