info face="Dumbledor 1 Wide" size=-32 bold=0 italic=0 charset="" unicode=1 stretchH=100 smooth=1 aa=1 padding=0,0,0,0 spacing=1,1 outline=0
common lineHeight=31 base=24 scaleW=1024 scaleH=1024 pages=1 packed=0 alphaChnl=0 redChnl=4 greenChnl=4 blueChnl=4
page id=0 file="dumbledore_w_0.png"
chars count=95
char id=32   x=761   y=32    width=3     height=31    xoffset=-1    yoffset=0     xadvance=12    page=0  chnl=15
char id=33   x=713   y=32    width=8     height=31    xoffset=0     yoffset=0     xadvance=8     page=0  chnl=15
char id=34   x=704   y=32    width=8     height=31    xoffset=0     yoffset=0     xadvance=7     page=0  chnl=15
char id=35   x=373   y=32    width=15    height=31    xoffset=1     yoffset=0     xadvance=16    page=0  chnl=15
char id=36   x=845   y=0     width=20    height=31    xoffset=0     yoffset=0     xadvance=20    page=0  chnl=15
char id=37   x=666   y=0     width=23    height=31    xoffset=1     yoffset=0     xadvance=24    page=0  chnl=15
char id=38   x=690   y=0     width=22    height=31    xoffset=0     yoffset=0     xadvance=22    page=0  chnl=15
char id=39   x=756   y=32    width=4     height=31    xoffset=0     yoffset=0     xadvance=4     page=0  chnl=15
char id=40   x=666   y=32    width=9     height=31    xoffset=0     yoffset=0     xadvance=9     page=0  chnl=15
char id=41   x=695   y=32    width=8     height=31    xoffset=1     yoffset=0     xadvance=9     page=0  chnl=15
char id=42   x=577   y=32    width=11    height=31    xoffset=1     yoffset=0     xadvance=12    page=0  chnl=15
char id=43   x=1009  y=0     width=14    height=31    xoffset=1     yoffset=0     xadvance=15    page=0  chnl=15
char id=44   x=743   y=32    width=6     height=31    xoffset=0     yoffset=0     xadvance=6     page=0  chnl=15
char id=45   x=452   y=32    width=14    height=31    xoffset=1     yoffset=0     xadvance=16    page=0  chnl=15
char id=46   x=736   y=32    width=6     height=31    xoffset=0     yoffset=0     xadvance=6     page=0  chnl=15
char id=47   x=801   y=0     width=21    height=31    xoffset=1     yoffset=0     xadvance=22    page=0  chnl=15
char id=48   x=642   y=0     width=23    height=31    xoffset=0     yoffset=0     xadvance=23    page=0  chnl=15
char id=49   x=656   y=32    width=9     height=31    xoffset=1     yoffset=0     xadvance=10    page=0  chnl=15
char id=50   x=779   y=0     width=21    height=31    xoffset=0     yoffset=0     xadvance=21    page=0  chnl=15
char id=51   x=969   y=0     width=19    height=31    xoffset=0     yoffset=0     xadvance=19    page=0  chnl=15
char id=52   x=757   y=0     width=21    height=31    xoffset=1     yoffset=0     xadvance=22    page=0  chnl=15
char id=53   x=80    y=32    width=19    height=31    xoffset=0     yoffset=0     xadvance=19    page=0  chnl=15
char id=54   x=158   y=32    width=18    height=31    xoffset=0     yoffset=0     xadvance=18    page=0  chnl=15
char id=55   x=735   y=0     width=21    height=31    xoffset=1     yoffset=0     xadvance=22    page=0  chnl=15
char id=56   x=40    y=32    width=19    height=31    xoffset=0     yoffset=0     xadvance=19    page=0  chnl=15
char id=57   x=252   y=32    width=17    height=31    xoffset=1     yoffset=0     xadvance=18    page=0  chnl=15
char id=58   x=729   y=32    width=6     height=31    xoffset=0     yoffset=0     xadvance=6     page=0  chnl=15
char id=59   x=722   y=32    width=6     height=31    xoffset=0     yoffset=0     xadvance=6     page=0  chnl=15
char id=60   x=539   y=32    width=12    height=31    xoffset=1     yoffset=0     xadvance=13    page=0  chnl=15
char id=61   x=467   y=32    width=14    height=31    xoffset=1     yoffset=0     xadvance=16    page=0  chnl=15
char id=62   x=497   y=32    width=13    height=31    xoffset=0     yoffset=0     xadvance=13    page=0  chnl=15
char id=63   x=288   y=32    width=16    height=31    xoffset=0     yoffset=0     xadvance=16    page=0  chnl=15
char id=64   x=141   y=0     width=30    height=31    xoffset=0     yoffset=0     xadvance=30    page=0  chnl=15
char id=65   x=202   y=0     width=29    height=31    xoffset=1     yoffset=0     xadvance=30    page=0  chnl=15
char id=66   x=713   y=0     width=21    height=31    xoffset=0     yoffset=0     xadvance=21    page=0  chnl=15
char id=67   x=232   y=0     width=28    height=31    xoffset=0     yoffset=0     xadvance=29    page=0  chnl=15
char id=68   x=514   y=0     width=25    height=31    xoffset=0     yoffset=0     xadvance=25    page=0  chnl=15
char id=69   x=989   y=0     width=19    height=31    xoffset=0     yoffset=0     xadvance=19    page=0  chnl=15
char id=70   x=949   y=0     width=19    height=31    xoffset=-1    yoffset=0     xadvance=18    page=0  chnl=15
char id=71   x=261   y=0     width=28    height=31    xoffset=0     yoffset=0     xadvance=29    page=0  chnl=15
char id=72   x=433   y=0     width=27    height=31    xoffset=0     yoffset=0     xadvance=27    page=0  chnl=15
char id=73   x=565   y=32    width=11    height=31    xoffset=0     yoffset=0     xadvance=11    page=0  chnl=15
char id=74   x=625   y=32    width=10    height=31    xoffset=0     yoffset=0     xadvance=10    page=0  chnl=15
char id=75   x=319   y=0     width=28    height=31    xoffset=1     yoffset=0     xadvance=30    page=0  chnl=15
char id=76   x=908   y=0     width=20    height=31    xoffset=1     yoffset=0     xadvance=21    page=0  chnl=15
char id=77   x=76    y=0     width=33    height=31    xoffset=1     yoffset=0     xadvance=35    page=0  chnl=15
char id=78   x=461   y=0     width=26    height=31    xoffset=1     yoffset=0     xadvance=27    page=0  chnl=15
char id=79   x=110   y=0     width=30    height=31    xoffset=0     yoffset=0     xadvance=30    page=0  chnl=15
char id=80   x=0     y=32    width=19    height=31    xoffset=0     yoffset=0     xadvance=19    page=0  chnl=15
char id=81   x=41    y=0     width=34    height=31    xoffset=0     yoffset=0     xadvance=34    page=0  chnl=15
char id=82   x=618   y=0     width=23    height=31    xoffset=0     yoffset=0     xadvance=24    page=0  chnl=15
char id=83   x=866   y=0     width=20    height=31    xoffset=0     yoffset=0     xadvance=20    page=0  chnl=15
char id=84   x=172   y=0     width=29    height=31    xoffset=1     yoffset=0     xadvance=30    page=0  chnl=15
char id=85   x=540   y=0     width=25    height=31    xoffset=0     yoffset=0     xadvance=25    page=0  chnl=15
char id=86   x=290   y=0     width=28    height=31    xoffset=1     yoffset=0     xadvance=29    page=0  chnl=15
char id=87   x=0     y=0     width=40    height=31    xoffset=0     yoffset=0     xadvance=40    page=0  chnl=15
char id=88   x=377   y=0     width=27    height=31    xoffset=1     yoffset=0     xadvance=28    page=0  chnl=15
char id=89   x=488   y=0     width=25    height=31    xoffset=1     yoffset=0     xadvance=27    page=0  chnl=15
char id=90   x=348   y=0     width=28    height=31    xoffset=1     yoffset=0     xadvance=29    page=0  chnl=15
char id=91   x=552   y=32    width=12    height=31    xoffset=0     yoffset=0     xadvance=12    page=0  chnl=15
char id=92   x=887   y=0     width=20    height=31    xoffset=0     yoffset=0     xadvance=20    page=0  chnl=15
char id=93   x=589   y=32    width=11    height=31    xoffset=1     yoffset=0     xadvance=12    page=0  chnl=15
char id=94   x=525   y=32    width=13    height=31    xoffset=0     yoffset=0     xadvance=13    page=0  chnl=15
char id=95   x=405   y=0     width=27    height=31    xoffset=1     yoffset=0     xadvance=28    page=0  chnl=15
char id=96   x=676   y=32    width=9     height=31    xoffset=0     yoffset=0     xadvance=9     page=0  chnl=15
char id=97   x=356   y=32    width=16    height=31    xoffset=-1    yoffset=0     xadvance=15    page=0  chnl=15
char id=98   x=929   y=0     width=19    height=31    xoffset=1     yoffset=0     xadvance=20    page=0  chnl=15
char id=99   x=389   y=32    width=15    height=31    xoffset=0     yoffset=0     xadvance=15    page=0  chnl=15
char id=100  x=100   y=32    width=19    height=31    xoffset=0     yoffset=0     xadvance=19    page=0  chnl=15
char id=101  x=322   y=32    width=16    height=31    xoffset=0     yoffset=0     xadvance=16    page=0  chnl=15
char id=102  x=421   y=32    width=15    height=31    xoffset=0     yoffset=0     xadvance=14    page=0  chnl=15
char id=103  x=20    y=32    width=19    height=31    xoffset=0     yoffset=0     xadvance=20    page=0  chnl=15
char id=104  x=120   y=32    width=18    height=31    xoffset=0     yoffset=0     xadvance=18    page=0  chnl=15
char id=105  x=686   y=32    width=8     height=31    xoffset=1     yoffset=0     xadvance=9     page=0  chnl=15
char id=106  x=636   y=32    width=9     height=31    xoffset=0     yoffset=0     xadvance=8     page=0  chnl=15
char id=107  x=270   y=32    width=17    height=31    xoffset=0     yoffset=0     xadvance=17    page=0  chnl=15
char id=108  x=646   y=32    width=9     height=31    xoffset=0     yoffset=0     xadvance=9     page=0  chnl=15
char id=109  x=566   y=0     width=25    height=31    xoffset=0     yoffset=0     xadvance=25    page=0  chnl=15
char id=110  x=305   y=32    width=16    height=31    xoffset=1     yoffset=0     xadvance=17    page=0  chnl=15
char id=111  x=177   y=32    width=18    height=31    xoffset=-1    yoffset=0     xadvance=17    page=0  chnl=15
char id=112  x=60    y=32    width=19    height=31    xoffset=0     yoffset=0     xadvance=19    page=0  chnl=15
char id=113  x=139   y=32    width=18    height=31    xoffset=0     yoffset=0     xadvance=18    page=0  chnl=15
char id=114  x=405   y=32    width=15    height=31    xoffset=-1    yoffset=0     xadvance=14    page=0  chnl=15
char id=115  x=437   y=32    width=14    height=31    xoffset=0     yoffset=0     xadvance=14    page=0  chnl=15
char id=116  x=511   y=32    width=13    height=31    xoffset=0     yoffset=0     xadvance=13    page=0  chnl=15
char id=117  x=339   y=32    width=16    height=31    xoffset=0     yoffset=0     xadvance=16    page=0  chnl=15
char id=118  x=234   y=32    width=17    height=31    xoffset=1     yoffset=0     xadvance=18    page=0  chnl=15
char id=119  x=592   y=0     width=25    height=31    xoffset=0     yoffset=0     xadvance=25    page=0  chnl=15
char id=120  x=823   y=0     width=21    height=31    xoffset=-1    yoffset=0     xadvance=19    page=0  chnl=15
char id=121  x=196   y=32    width=18    height=31    xoffset=0     yoffset=0     xadvance=18    page=0  chnl=15
char id=122  x=215   y=32    width=18    height=31    xoffset=1     yoffset=0     xadvance=19    page=0  chnl=15
char id=123  x=601   y=32    width=11    height=31    xoffset=0     yoffset=0     xadvance=11    page=0  chnl=15
char id=124  x=750   y=32    width=5     height=31    xoffset=0     yoffset=0     xadvance=5     page=0  chnl=15
char id=125  x=613   y=32    width=11    height=31    xoffset=0     yoffset=0     xadvance=11    page=0  chnl=15
char id=126  x=482   y=32    width=14    height=31    xoffset=1     yoffset=0     xadvance=16    page=0  chnl=15
