info face="UnZialish" size=-32 bold=0 italic=0 charset="" unicode=1 stretchH=100 smooth=1 aa=1 padding=0,0,0,0 spacing=1,1 outline=0
common lineHeight=43 base=28 scaleW=1024 scaleH=1024 pages=1 packed=0 alphaChnl=0 redChnl=4 greenChnl=4 blueChnl=4
page id=0 file="UnZialish_0.png"
chars count=95
char id=32   x=884   y=44    width=3     height=43    xoffset=-1    yoffset=0     xadvance=8     page=0  chnl=15
char id=33   x=749   y=44    width=10    height=43    xoffset=0     yoffset=0     xadvance=11    page=0  chnl=15
char id=34   x=596   y=44    width=15    height=43    xoffset=1     yoffset=0     xadvance=17    page=0  chnl=15
char id=35   x=449   y=44    width=18    height=43    xoffset=2     yoffset=0     xadvance=22    page=0  chnl=15
char id=36   x=580   y=44    width=15    height=43    xoffset=1     yoffset=0     xadvance=17    page=0  chnl=15
char id=37   x=686   y=0     width=24    height=43    xoffset=2     yoffset=0     xadvance=28    page=0  chnl=15
char id=38   x=0     y=44    width=22    height=43    xoffset=-1    yoffset=0     xadvance=21    page=0  chnl=15
char id=39   x=829   y=44    width=8     height=43    xoffset=0     yoffset=0     xadvance=8     page=0  chnl=15
char id=40   x=705   y=44    width=10    height=43    xoffset=2     yoffset=0     xadvance=14    page=0  chnl=15
char id=41   x=727   y=44    width=10    height=43    xoffset=2     yoffset=0     xadvance=13    page=0  chnl=15
char id=42   x=409   y=44    width=19    height=43    xoffset=9     yoffset=0     xadvance=37    page=0  chnl=15
char id=43   x=285   y=44    width=20    height=43    xoffset=2     yoffset=0     xadvance=23    page=0  chnl=15
char id=44   x=820   y=44    width=8     height=43    xoffset=1     yoffset=0     xadvance=9     page=0  chnl=15
char id=45   x=628   y=44    width=14    height=43    xoffset=2     yoffset=0     xadvance=17    page=0  chnl=15
char id=46   x=801   y=44    width=9     height=43    xoffset=0     yoffset=0     xadvance=10    page=0  chnl=15
char id=47   x=23    y=44    width=22    height=43    xoffset=2     yoffset=0     xadvance=26    page=0  chnl=15
char id=48   x=661   y=0     width=24    height=43    xoffset=2     yoffset=0     xadvance=28    page=0  chnl=15
char id=49   x=694   y=44    width=10    height=43    xoffset=1     yoffset=0     xadvance=12    page=0  chnl=15
char id=50   x=834   y=0     width=23    height=43    xoffset=2     yoffset=0     xadvance=27    page=0  chnl=15
char id=51   x=178   y=44    width=21    height=43    xoffset=2     yoffset=0     xadvance=25    page=0  chnl=15
char id=52   x=532   y=0     width=25    height=43    xoffset=3     yoffset=0     xadvance=31    page=0  chnl=15
char id=53   x=306   y=44    width=20    height=43    xoffset=2     yoffset=0     xadvance=23    page=0  chnl=15
char id=54   x=222   y=44    width=20    height=43    xoffset=2     yoffset=0     xadvance=24    page=0  chnl=15
char id=55   x=68    y=44    width=21    height=43    xoffset=2     yoffset=0     xadvance=26    page=0  chnl=15
char id=56   x=327   y=44    width=20    height=43    xoffset=2     yoffset=0     xadvance=23    page=0  chnl=15
char id=57   x=348   y=44    width=20    height=43    xoffset=2     yoffset=0     xadvance=24    page=0  chnl=15
char id=58   x=838   y=44    width=8     height=43    xoffset=1     yoffset=0     xadvance=10    page=0  chnl=15
char id=59   x=847   y=44    width=8     height=43    xoffset=1     yoffset=0     xadvance=10    page=0  chnl=15
char id=60   x=781   y=44    width=9     height=43    xoffset=1     yoffset=0     xadvance=11    page=0  chnl=15
char id=61   x=612   y=44    width=15    height=43    xoffset=1     yoffset=0     xadvance=17    page=0  chnl=15
char id=62   x=771   y=44    width=9     height=43    xoffset=1     yoffset=0     xadvance=11    page=0  chnl=15
char id=63   x=525   y=44    width=18    height=43    xoffset=1     yoffset=0     xadvance=20    page=0  chnl=15
char id=64   x=112   y=44    width=21    height=43    xoffset=2     yoffset=0     xadvance=25    page=0  chnl=15
char id=65   x=396   y=0     width=27    height=43    xoffset=1     yoffset=0     xadvance=29    page=0  chnl=15
char id=66   x=156   y=44    width=21    height=43    xoffset=2     yoffset=0     xadvance=25    page=0  chnl=15
char id=67   x=953   y=0     width=22    height=43    xoffset=2     yoffset=0     xadvance=26    page=0  chnl=15
char id=68   x=367   y=0     width=28    height=43    xoffset=1     yoffset=0     xadvance=30    page=0  chnl=15
char id=69   x=999   y=0     width=22    height=43    xoffset=2     yoffset=0     xadvance=26    page=0  chnl=15
char id=70   x=736   y=0     width=24    height=43    xoffset=1     yoffset=0     xadvance=25    page=0  chnl=15
char id=71   x=810   y=0     width=23    height=43    xoffset=2     yoffset=0     xadvance=27    page=0  chnl=15
char id=72   x=584   y=0     width=25    height=43    xoffset=3     yoffset=0     xadvance=31    page=0  chnl=15
char id=73   x=760   y=44    width=10    height=43    xoffset=1     yoffset=0     xadvance=12    page=0  chnl=15
char id=74   x=738   y=44    width=10    height=43    xoffset=1     yoffset=0     xadvance=12    page=0  chnl=15
char id=75   x=761   y=0     width=24    height=43    xoffset=1     yoffset=0     xadvance=26    page=0  chnl=15
char id=76   x=468   y=44    width=18    height=43    xoffset=1     yoffset=0     xadvance=20    page=0  chnl=15
char id=77   x=121   y=0     width=32    height=43    xoffset=1     yoffset=0     xadvance=34    page=0  chnl=15
char id=78   x=711   y=0     width=24    height=43    xoffset=1     yoffset=0     xadvance=27    page=0  chnl=15
char id=79   x=505   y=0     width=26    height=43    xoffset=2     yoffset=0     xadvance=30    page=0  chnl=15
char id=80   x=424   y=0     width=26    height=43    xoffset=2     yoffset=0     xadvance=30    page=0  chnl=15
char id=81   x=451   y=0     width=26    height=43    xoffset=1     yoffset=0     xadvance=28    page=0  chnl=15
char id=82   x=186   y=0     width=30    height=43    xoffset=-5    yoffset=0     xadvance=21    page=0  chnl=15
char id=83   x=786   y=0     width=23    height=43    xoffset=0     yoffset=0     xadvance=23    page=0  chnl=15
char id=84   x=154   y=0     width=31    height=43    xoffset=2     yoffset=0     xadvance=35    page=0  chnl=15
char id=85   x=478   y=0     width=26    height=43    xoffset=1     yoffset=0     xadvance=28    page=0  chnl=15
char id=86   x=85    y=0     width=35    height=43    xoffset=1     yoffset=0     xadvance=37    page=0  chnl=15
char id=87   x=0     y=0     width=46    height=43    xoffset=2     yoffset=0     xadvance=50    page=0  chnl=15
char id=88   x=308   y=0     width=29    height=43    xoffset=0     yoffset=0     xadvance=29    page=0  chnl=15
char id=89   x=217   y=0     width=30    height=43    xoffset=1     yoffset=0     xadvance=32    page=0  chnl=15
char id=90   x=248   y=0     width=29    height=43    xoffset=0     yoffset=0     xadvance=29    page=0  chnl=15
char id=91   x=878   y=44    width=5     height=43    xoffset=0     yoffset=0     xadvance=5     page=0  chnl=15
char id=92   x=716   y=44    width=10    height=43    xoffset=0     yoffset=0     xadvance=11    page=0  chnl=15
char id=93   x=872   y=44    width=5     height=43    xoffset=0     yoffset=0     xadvance=4     page=0  chnl=15
char id=94   x=791   y=44    width=9     height=43    xoffset=1     yoffset=0     xadvance=11    page=0  chnl=15
char id=95   x=278   y=0     width=29    height=43    xoffset=0     yoffset=0     xadvance=29    page=0  chnl=15
char id=96   x=865   y=44    width=6     height=43    xoffset=0     yoffset=0     xadvance=6     page=0  chnl=15
char id=97   x=46    y=44    width=21    height=43    xoffset=2     yoffset=0     xadvance=26    page=0  chnl=15
char id=98   x=544   y=44    width=17    height=43    xoffset=0     yoffset=0     xadvance=17    page=0  chnl=15
char id=99   x=562   y=44    width=17    height=43    xoffset=1     yoffset=0     xadvance=19    page=0  chnl=15
char id=100  x=930   y=0     width=22    height=43    xoffset=2     yoffset=0     xadvance=25    page=0  chnl=15
char id=101  x=487   y=44    width=18    height=43    xoffset=1     yoffset=0     xadvance=21    page=0  chnl=15
char id=102  x=429   y=44    width=19    height=43    xoffset=2     yoffset=0     xadvance=23    page=0  chnl=15
char id=103  x=506   y=44    width=18    height=43    xoffset=2     yoffset=0     xadvance=22    page=0  chnl=15
char id=104  x=90    y=44    width=21    height=43    xoffset=2     yoffset=0     xadvance=24    page=0  chnl=15
char id=105  x=811   y=44    width=8     height=43    xoffset=1     yoffset=0     xadvance=10    page=0  chnl=15
char id=106  x=856   y=44    width=8     height=43    xoffset=1     yoffset=0     xadvance=9     page=0  chnl=15
char id=107  x=243   y=44    width=20    height=43    xoffset=2     yoffset=0     xadvance=24    page=0  chnl=15
char id=108  x=643   y=44    width=14    height=43    xoffset=1     yoffset=0     xadvance=16    page=0  chnl=15
char id=109  x=610   y=0     width=25    height=43    xoffset=2     yoffset=0     xadvance=30    page=0  chnl=15
char id=110  x=389   y=44    width=19    height=43    xoffset=2     yoffset=0     xadvance=23    page=0  chnl=15
char id=111  x=134   y=44    width=21    height=43    xoffset=2     yoffset=0     xadvance=25    page=0  chnl=15
char id=112  x=976   y=0     width=22    height=43    xoffset=1     yoffset=0     xadvance=24    page=0  chnl=15
char id=113  x=200   y=44    width=21    height=43    xoffset=1     yoffset=0     xadvance=23    page=0  chnl=15
char id=114  x=636   y=0     width=24    height=43    xoffset=-4    yoffset=0     xadvance=16    page=0  chnl=15
char id=115  x=369   y=44    width=19    height=43    xoffset=0     yoffset=0     xadvance=18    page=0  chnl=15
char id=116  x=558   y=0     width=25    height=43    xoffset=1     yoffset=0     xadvance=27    page=0  chnl=15
char id=117  x=264   y=44    width=20    height=43    xoffset=1     yoffset=0     xadvance=22    page=0  chnl=15
char id=118  x=338   y=0     width=28    height=43    xoffset=0     yoffset=0     xadvance=29    page=0  chnl=15
char id=119  x=47    y=0     width=37    height=43    xoffset=2     yoffset=0     xadvance=41    page=0  chnl=15
char id=120  x=858   y=0     width=23    height=43    xoffset=2     yoffset=0     xadvance=28    page=0  chnl=15
char id=121  x=882   y=0     width=23    height=43    xoffset=1     yoffset=0     xadvance=26    page=0  chnl=15
char id=122  x=906   y=0     width=23    height=43    xoffset=0     yoffset=0     xadvance=23    page=0  chnl=15
char id=123  x=670   y=44    width=11    height=43    xoffset=0     yoffset=0     xadvance=11    page=0  chnl=15
char id=124  x=888   y=44    width=3     height=43    xoffset=0     yoffset=0     xadvance=2     page=0  chnl=15
char id=125  x=682   y=44    width=11    height=43    xoffset=0     yoffset=0     xadvance=11    page=0  chnl=15
char id=126  x=658   y=44    width=11    height=43    xoffset=1     yoffset=0     xadvance=12    page=0  chnl=15
