info face="Berry Rotunda" size=-32 bold=0 italic=0 charset="" unicode=1 stretchH=100 smooth=1 aa=1 padding=0,0,0,0 spacing=1,1 outline=0
common lineHeight=55 base=43 scaleW=1024 scaleH=1024 pages=1 packed=0 alphaChnl=0 redChnl=4 greenChnl=4 blueChnl=4
page id=0 file="berry_0.png"
chars count=95
char id=32   x=101   y=112   width=3     height=55    xoffset=-1    yoffset=0     xadvance=16    page=0  chnl=15
char id=33   x=72    y=112   width=7     height=55    xoffset=5     yoffset=0     xadvance=12    page=0  chnl=15
char id=34   x=923   y=56    width=12    height=55    xoffset=0     yoffset=0     xadvance=13    page=0  chnl=15
char id=35   x=723   y=56    width=18    height=55    xoffset=0     yoffset=0     xadvance=18    page=0  chnl=15
char id=36   x=644   y=56    width=20    height=55    xoffset=-1    yoffset=0     xadvance=19    page=0  chnl=15
char id=37   x=256   y=56    width=23    height=55    xoffset=-1    yoffset=0     xadvance=22    page=0  chnl=15
char id=38   x=467   y=56    width=22    height=55    xoffset=0     yoffset=0     xadvance=22    page=0  chnl=15
char id=39   x=80    y=112   width=7     height=55    xoffset=0     yoffset=0     xadvance=7     page=0  chnl=15
char id=40   x=0     y=112   width=9     height=55    xoffset=-1    yoffset=0     xadvance=7     page=0  chnl=15
char id=41   x=10    y=112   width=9     height=55    xoffset=-1    yoffset=0     xadvance=7     page=0  chnl=15
char id=42   x=909   y=56    width=13    height=55    xoffset=0     yoffset=0     xadvance=13    page=0  chnl=15
char id=43   x=794   y=56    width=16    height=55    xoffset=0     yoffset=0     xadvance=16    page=0  chnl=15
char id=44   x=39    y=112   width=8     height=55    xoffset=1     yoffset=0     xadvance=10    page=0  chnl=15
char id=45   x=845   y=56    width=16    height=55    xoffset=1     yoffset=0     xadvance=18    page=0  chnl=15
char id=46   x=88    y=112   width=7     height=55    xoffset=1     yoffset=0     xadvance=9     page=0  chnl=15
char id=47   x=828   y=56    width=16    height=55    xoffset=0     yoffset=0     xadvance=13    page=0  chnl=15
char id=48   x=950   y=0     width=26    height=55    xoffset=-1    yoffset=0     xadvance=27    page=0  chnl=15
char id=49   x=894   y=56    width=14    height=55    xoffset=-1    yoffset=0     xadvance=13    page=0  chnl=15
char id=50   x=181   y=56    width=24    height=55    xoffset=0     yoffset=0     xadvance=24    page=0  chnl=15
char id=51   x=54    y=56    width=25    height=55    xoffset=-1    yoffset=0     xadvance=26    page=0  chnl=15
char id=52   x=0     y=56    width=26    height=55    xoffset=-1    yoffset=0     xadvance=27    page=0  chnl=15
char id=53   x=398   y=56    width=22    height=55    xoffset=-1    yoffset=0     xadvance=22    page=0  chnl=15
char id=54   x=131   y=56    width=24    height=55    xoffset=-1    yoffset=0     xadvance=25    page=0  chnl=15
char id=55   x=206   y=56    width=24    height=55    xoffset=-1    yoffset=0     xadvance=25    page=0  chnl=15
char id=56   x=106   y=56    width=24    height=55    xoffset=-1    yoffset=0     xadvance=25    page=0  chnl=15
char id=57   x=923   y=0     width=26    height=55    xoffset=-1    yoffset=0     xadvance=27    page=0  chnl=15
char id=58   x=64    y=112   width=7     height=55    xoffset=4     yoffset=0     xadvance=11    page=0  chnl=15
char id=59   x=20    y=112   width=9     height=55    xoffset=2     yoffset=0     xadvance=11    page=0  chnl=15
char id=60   x=962   y=56    width=11    height=55    xoffset=0     yoffset=0     xadvance=11    page=0  chnl=15
char id=61   x=742   y=56    width=17    height=55    xoffset=0     yoffset=0     xadvance=17    page=0  chnl=15
char id=62   x=974   y=56    width=11    height=55    xoffset=0     yoffset=0     xadvance=11    page=0  chnl=15
char id=63   x=602   y=56    width=20    height=55    xoffset=5     yoffset=0     xadvance=25    page=0  chnl=15
char id=64   x=27    y=56    width=26    height=55    xoffset=0     yoffset=0     xadvance=25    page=0  chnl=15
char id=65   x=553   y=0     width=32    height=55    xoffset=-1    yoffset=0     xadvance=32    page=0  chnl=15
char id=66   x=129   y=0     width=38    height=55    xoffset=-1    yoffset=0     xadvance=38    page=0  chnl=15
char id=67   x=808   y=0     width=28    height=55    xoffset=-1    yoffset=0     xadvance=28    page=0  chnl=15
char id=68   x=384   y=0     width=33    height=55    xoffset=-1    yoffset=0     xadvance=33    page=0  chnl=15
char id=69   x=837   y=0     width=28    height=55    xoffset=-1    yoffset=0     xadvance=27    page=0  chnl=15
char id=70   x=866   y=0     width=28    height=55    xoffset=-1    yoffset=0     xadvance=26    page=0  chnl=15
char id=71   x=315   y=0     width=34    height=55    xoffset=-1    yoffset=0     xadvance=34    page=0  chnl=15
char id=72   x=452   y=0     width=33    height=55    xoffset=-1    yoffset=0     xadvance=32    page=0  chnl=15
char id=73   x=977   y=0     width=26    height=55    xoffset=0     yoffset=0     xadvance=25    page=0  chnl=15
char id=74   x=895   y=0     width=27    height=55    xoffset=-1    yoffset=0     xadvance=25    page=0  chnl=15
char id=75   x=486   y=0     width=33    height=55    xoffset=-1    yoffset=0     xadvance=31    page=0  chnl=15
char id=76   x=715   y=0     width=31    height=55    xoffset=0     yoffset=0     xadvance=29    page=0  chnl=15
char id=77   x=0     y=0     width=45    height=55    xoffset=-1    yoffset=0     xadvance=45    page=0  chnl=15
char id=78   x=651   y=0     width=31    height=55    xoffset=-1    yoffset=0     xadvance=31    page=0  chnl=15
char id=79   x=778   y=0     width=29    height=55    xoffset=-1    yoffset=0     xadvance=29    page=0  chnl=15
char id=80   x=88    y=0     width=40    height=55    xoffset=-1    yoffset=0     xadvance=38    page=0  chnl=15
char id=81   x=683   y=0     width=31    height=55    xoffset=-1    yoffset=0     xadvance=31    page=0  chnl=15
char id=82   x=207   y=0     width=36    height=55    xoffset=-1    yoffset=0     xadvance=35    page=0  chnl=15
char id=83   x=619   y=0     width=31    height=55    xoffset=-1    yoffset=0     xadvance=31    page=0  chnl=15
char id=84   x=280   y=0     width=34    height=55    xoffset=-1    yoffset=0     xadvance=30    page=0  chnl=15
char id=85   x=520   y=0     width=32    height=55    xoffset=-1    yoffset=0     xadvance=30    page=0  chnl=15
char id=86   x=747   y=0     width=30    height=55    xoffset=-1    yoffset=0     xadvance=28    page=0  chnl=15
char id=87   x=46    y=0     width=41    height=55    xoffset=-1    yoffset=0     xadvance=39    page=0  chnl=15
char id=88   x=168   y=0     width=38    height=55    xoffset=-1    yoffset=0     xadvance=37    page=0  chnl=15
char id=89   x=418   y=0     width=33    height=55    xoffset=-1    yoffset=0     xadvance=31    page=0  chnl=15
char id=90   x=586   y=0     width=32    height=55    xoffset=-1    yoffset=0     xadvance=32    page=0  chnl=15
char id=91   x=56    y=112   width=7     height=55    xoffset=2     yoffset=0     xadvance=11    page=0  chnl=15
char id=92   x=777   y=56    width=16    height=55    xoffset=-1    yoffset=0     xadvance=13    page=0  chnl=15
char id=93   x=48    y=112   width=7     height=55    xoffset=1     yoffset=0     xadvance=11    page=0  chnl=15
char id=94   x=878   y=56    width=15    height=55    xoffset=-1    yoffset=0     xadvance=13    page=0  chnl=15
char id=95   x=685   y=56    width=18    height=55    xoffset=-1    yoffset=0     xadvance=16    page=0  chnl=15
char id=96   x=30    y=112   width=8     height=55    xoffset=0     yoffset=0     xadvance=7     page=0  chnl=15
char id=97   x=328   y=56    width=23    height=55    xoffset=-1    yoffset=0     xadvance=24    page=0  chnl=15
char id=98   x=490   y=56    width=22    height=55    xoffset=-1    yoffset=0     xadvance=22    page=0  chnl=15
char id=99   x=1004  y=0     width=19    height=55    xoffset=-1    yoffset=0     xadvance=19    page=0  chnl=15
char id=100  x=352   y=56    width=22    height=55    xoffset=-1    yoffset=0     xadvance=23    page=0  chnl=15
char id=101  x=665   y=56    width=19    height=55    xoffset=-1    yoffset=0     xadvance=19    page=0  chnl=15
char id=102  x=811   y=56    width=16    height=55    xoffset=-1    yoffset=0     xadvance=16    page=0  chnl=15
char id=103  x=375   y=56    width=22    height=55    xoffset=-1    yoffset=0     xadvance=22    page=0  chnl=15
char id=104  x=421   y=56    width=22    height=55    xoffset=-1    yoffset=0     xadvance=22    page=0  chnl=15
char id=105  x=986   y=56    width=11    height=55    xoffset=0     yoffset=0     xadvance=11    page=0  chnl=15
char id=106  x=998   y=56    width=11    height=55    xoffset=-1    yoffset=0     xadvance=11    page=0  chnl=15
char id=107  x=444   y=56    width=22    height=55    xoffset=-1    yoffset=0     xadvance=22    page=0  chnl=15
char id=108  x=1010  y=56    width=10    height=55    xoffset=-1    yoffset=0     xadvance=9     page=0  chnl=15
char id=109  x=244   y=0     width=35    height=55    xoffset=-1    yoffset=0     xadvance=37    page=0  chnl=15
char id=110  x=156   y=56    width=24    height=55    xoffset=0     yoffset=0     xadvance=26    page=0  chnl=15
char id=111  x=536   y=56    width=21    height=55    xoffset=-1    yoffset=0     xadvance=21    page=0  chnl=15
char id=112  x=280   y=56    width=23    height=55    xoffset=-1    yoffset=0     xadvance=23    page=0  chnl=15
char id=113  x=304   y=56    width=23    height=55    xoffset=-1    yoffset=0     xadvance=23    page=0  chnl=15
char id=114  x=704   y=56    width=18    height=55    xoffset=-1    yoffset=0     xadvance=18    page=0  chnl=15
char id=115  x=623   y=56    width=20    height=55    xoffset=-1    yoffset=0     xadvance=20    page=0  chnl=15
char id=116  x=862   y=56    width=15    height=55    xoffset=-1    yoffset=0     xadvance=15    page=0  chnl=15
char id=117  x=80    y=56    width=25    height=55    xoffset=-1    yoffset=0     xadvance=25    page=0  chnl=15
char id=118  x=558   y=56    width=21    height=55    xoffset=-1    yoffset=0     xadvance=22    page=0  chnl=15
char id=119  x=350   y=0     width=33    height=55    xoffset=-1    yoffset=0     xadvance=34    page=0  chnl=15
char id=120  x=231   y=56    width=24    height=55    xoffset=-1    yoffset=0     xadvance=25    page=0  chnl=15
char id=121  x=513   y=56    width=22    height=55    xoffset=-1    yoffset=0     xadvance=22    page=0  chnl=15
char id=122  x=580   y=56    width=21    height=55    xoffset=-1    yoffset=0     xadvance=21    page=0  chnl=15
char id=123  x=936   y=56    width=12    height=55    xoffset=0     yoffset=0     xadvance=12    page=0  chnl=15
char id=124  x=96    y=112   width=4     height=55    xoffset=5     yoffset=0     xadvance=16    page=0  chnl=15
char id=125  x=949   y=56    width=12    height=55    xoffset=0     yoffset=0     xadvance=12    page=0  chnl=15
char id=126  x=760   y=56    width=16    height=55    xoffset=1     yoffset=0     xadvance=18    page=0  chnl=15
