info face="Livingstone" size=-32 bold=0 italic=0 charset="" unicode=1 stretchH=100 smooth=1 aa=1 padding=0,0,0,0 spacing=1,1 outline=0
common lineHeight=32 base=25 scaleW=1024 scaleH=1024 pages=1 packed=0 alphaChnl=0 redChnl=4 greenChnl=4 blueChnl=4
page id=0 file="livingstone_0.png"
chars count=95
char id=32   x=461   y=33    width=3     height=32    xoffset=-1    yoffset=0     xadvance=5     page=0  chnl=15
char id=33   x=399   y=33    width=7     height=32    xoffset=0     yoffset=0     xadvance=6     page=0  chnl=15
char id=34   x=1015  y=0     width=8     height=32    xoffset=1     yoffset=0     xadvance=8     page=0  chnl=15
char id=35   x=201   y=0     width=19    height=32    xoffset=1     yoffset=0     xadvance=20    page=0  chnl=15
char id=36   x=153   y=33    width=14    height=32    xoffset=1     yoffset=0     xadvance=14    page=0  chnl=15
char id=37   x=792   y=0     width=17    height=32    xoffset=1     yoffset=0     xadvance=17    page=0  chnl=15
char id=38   x=140   y=0     width=20    height=32    xoffset=1     yoffset=0     xadvance=20    page=0  chnl=15
char id=39   x=455   y=33    width=5     height=32    xoffset=1     yoffset=0     xadvance=6     page=0  chnl=15
char id=40   x=331   y=33    width=10    height=32    xoffset=1     yoffset=0     xadvance=10    page=0  chnl=15
char id=41   x=284   y=33    width=11    height=32    xoffset=0     yoffset=0     xadvance=10    page=0  chnl=15
char id=42   x=391   y=33    width=7     height=32    xoffset=1     yoffset=0     xadvance=8     page=0  chnl=15
char id=43   x=479   y=0     width=18    height=32    xoffset=1     yoffset=0     xadvance=18    page=0  chnl=15
char id=44   x=449   y=33    width=5     height=32    xoffset=1     yoffset=0     xadvance=6     page=0  chnl=15
char id=45   x=382   y=33    width=8     height=32    xoffset=2     yoffset=0     xadvance=10    page=0  chnl=15
char id=46   x=407   y=33    width=6     height=32    xoffset=1     yoffset=0     xadvance=6     page=0  chnl=15
char id=47   x=983   y=0     width=15    height=32    xoffset=1     yoffset=0     xadvance=15    page=0  chnl=15
char id=48   x=612   y=0     width=17    height=32    xoffset=1     yoffset=0     xadvance=17    page=0  chnl=15
char id=49   x=342   y=33    width=9     height=32    xoffset=4     yoffset=0     xadvance=17    page=0  chnl=15
char id=50   x=999   y=0     width=15    height=32    xoffset=2     yoffset=0     xadvance=17    page=0  chnl=15
char id=51   x=196   y=33    width=13    height=32    xoffset=3     yoffset=0     xadvance=17    page=0  chnl=15
char id=52   x=0     y=33    width=15    height=32    xoffset=2     yoffset=0     xadvance=17    page=0  chnl=15
char id=53   x=138   y=33    width=14    height=32    xoffset=3     yoffset=0     xadvance=17    page=0  chnl=15
char id=54   x=123   y=33    width=14    height=32    xoffset=2     yoffset=0     xadvance=17    page=0  chnl=15
char id=55   x=108   y=33    width=14    height=32    xoffset=3     yoffset=0     xadvance=17    page=0  chnl=15
char id=56   x=93    y=33    width=14    height=32    xoffset=2     yoffset=0     xadvance=17    page=0  chnl=15
char id=57   x=78    y=33    width=14    height=32    xoffset=2     yoffset=0     xadvance=17    page=0  chnl=15
char id=58   x=435   y=33    width=6     height=32    xoffset=1     yoffset=0     xadvance=6     page=0  chnl=15
char id=59   x=442   y=33    width=6     height=32    xoffset=1     yoffset=0     xadvance=6     page=0  chnl=15
char id=60   x=168   y=33    width=13    height=32    xoffset=1     yoffset=0     xadvance=14    page=0  chnl=15
char id=61   x=917   y=0     width=16    height=32    xoffset=1     yoffset=0     xadvance=17    page=0  chnl=15
char id=62   x=182   y=33    width=13    height=32    xoffset=1     yoffset=0     xadvance=14    page=0  chnl=15
char id=63   x=260   y=33    width=11    height=32    xoffset=0     yoffset=0     xadvance=11    page=0  chnl=15
char id=64   x=114   y=0     width=25    height=32    xoffset=1     yoffset=0     xadvance=25    page=0  chnl=15
char id=65   x=648   y=0     width=17    height=32    xoffset=0     yoffset=0     xadvance=17    page=0  chnl=15
char id=66   x=666   y=0     width=17    height=32    xoffset=0     yoffset=0     xadvance=16    page=0  chnl=15
char id=67   x=774   y=0     width=17    height=32    xoffset=1     yoffset=0     xadvance=16    page=0  chnl=15
char id=68   x=460   y=0     width=18    height=32    xoffset=1     yoffset=0     xadvance=18    page=0  chnl=15
char id=69   x=720   y=0     width=17    height=32    xoffset=1     yoffset=0     xadvance=17    page=0  chnl=15
char id=70   x=210   y=33    width=12    height=32    xoffset=1     yoffset=0     xadvance=12    page=0  chnl=15
char id=71   x=555   y=0     width=18    height=32    xoffset=1     yoffset=0     xadvance=18    page=0  chnl=15
char id=72   x=574   y=0     width=18    height=32    xoffset=1     yoffset=0     xadvance=18    page=0  chnl=15
char id=73   x=421   y=33    width=6     height=32    xoffset=0     yoffset=0     xadvance=6     page=0  chnl=15
char id=74   x=236   y=33    width=11    height=32    xoffset=-3    yoffset=0     xadvance=6     page=0  chnl=15
char id=75   x=810   y=0     width=17    height=32    xoffset=1     yoffset=0     xadvance=17    page=0  chnl=15
char id=76   x=272   y=33    width=11    height=32    xoffset=1     yoffset=0     xadvance=11    page=0  chnl=15
char id=77   x=86    y=0     width=27    height=32    xoffset=0     yoffset=0     xadvance=26    page=0  chnl=15
char id=78   x=321   y=0     width=19    height=32    xoffset=0     yoffset=0     xadvance=18    page=0  chnl=15
char id=79   x=401   y=0     width=19    height=32    xoffset=1     yoffset=0     xadvance=19    page=0  chnl=15
char id=80   x=301   y=0     width=19    height=32    xoffset=1     yoffset=0     xadvance=19    page=0  chnl=15
char id=81   x=593   y=0     width=18    height=32    xoffset=1     yoffset=0     xadvance=18    page=0  chnl=15
char id=82   x=381   y=0     width=19    height=32    xoffset=0     yoffset=0     xadvance=18    page=0  chnl=15
char id=83   x=951   y=0     width=15    height=32    xoffset=0     yoffset=0     xadvance=14    page=0  chnl=15
char id=84   x=934   y=0     width=16    height=32    xoffset=0     yoffset=0     xadvance=15    page=0  chnl=15
char id=85   x=361   y=0     width=19    height=32    xoffset=1     yoffset=0     xadvance=18    page=0  chnl=15
char id=86   x=864   y=0     width=17    height=32    xoffset=1     yoffset=0     xadvance=17    page=0  chnl=15
char id=87   x=0     y=0     width=28    height=32    xoffset=1     yoffset=0     xadvance=28    page=0  chnl=15
char id=88   x=341   y=0     width=19    height=32    xoffset=0     yoffset=0     xadvance=19    page=0  chnl=15
char id=89   x=756   y=0     width=17    height=32    xoffset=1     yoffset=0     xadvance=18    page=0  chnl=15
char id=90   x=967   y=0     width=15    height=32    xoffset=1     yoffset=0     xadvance=16    page=0  chnl=15
char id=91   x=372   y=33    width=9     height=32    xoffset=1     yoffset=0     xadvance=10    page=0  chnl=15
char id=92   x=248   y=33    width=11    height=32    xoffset=2     yoffset=0     xadvance=12    page=0  chnl=15
char id=93   x=362   y=33    width=9     height=32    xoffset=1     yoffset=0     xadvance=10    page=0  chnl=15
char id=94   x=352   y=33    width=9     height=32    xoffset=1     yoffset=0     xadvance=9     page=0  chnl=15
char id=95   x=181   y=0     width=19    height=32    xoffset=-1    yoffset=0     xadvance=16    page=0  chnl=15
char id=96   x=428   y=33    width=6     height=32    xoffset=1     yoffset=0     xadvance=6     page=0  chnl=15
char id=97   x=738   y=0     width=17    height=32    xoffset=0     yoffset=0     xadvance=17    page=0  chnl=15
char id=98   x=702   y=0     width=17    height=32    xoffset=0     yoffset=0     xadvance=16    page=0  chnl=15
char id=99   x=684   y=0     width=17    height=32    xoffset=1     yoffset=0     xadvance=16    page=0  chnl=15
char id=100  x=498   y=0     width=18    height=32    xoffset=1     yoffset=0     xadvance=18    page=0  chnl=15
char id=101  x=630   y=0     width=17    height=32    xoffset=1     yoffset=0     xadvance=17    page=0  chnl=15
char id=102  x=223   y=33    width=12    height=32    xoffset=1     yoffset=0     xadvance=12    page=0  chnl=15
char id=103  x=536   y=0     width=18    height=32    xoffset=1     yoffset=0     xadvance=18    page=0  chnl=15
char id=104  x=517   y=0     width=18    height=32    xoffset=1     yoffset=0     xadvance=18    page=0  chnl=15
char id=105  x=414   y=33    width=6     height=32    xoffset=0     yoffset=0     xadvance=6     page=0  chnl=15
char id=106  x=308   y=33    width=11    height=32    xoffset=-3    yoffset=0     xadvance=6     page=0  chnl=15
char id=107  x=846   y=0     width=17    height=32    xoffset=1     yoffset=0     xadvance=17    page=0  chnl=15
char id=108  x=296   y=33    width=11    height=32    xoffset=1     yoffset=0     xadvance=11    page=0  chnl=15
char id=109  x=58    y=0     width=27    height=32    xoffset=0     yoffset=0     xadvance=26    page=0  chnl=15
char id=110  x=281   y=0     width=19    height=32    xoffset=0     yoffset=0     xadvance=18    page=0  chnl=15
char id=111  x=261   y=0     width=19    height=32    xoffset=1     yoffset=0     xadvance=19    page=0  chnl=15
char id=112  x=241   y=0     width=19    height=32    xoffset=1     yoffset=0     xadvance=19    page=0  chnl=15
char id=113  x=441   y=0     width=18    height=32    xoffset=1     yoffset=0     xadvance=18    page=0  chnl=15
char id=114  x=221   y=0     width=19    height=32    xoffset=0     yoffset=0     xadvance=18    page=0  chnl=15
char id=115  x=16    y=33    width=15    height=32    xoffset=0     yoffset=0     xadvance=14    page=0  chnl=15
char id=116  x=900   y=0     width=16    height=32    xoffset=0     yoffset=0     xadvance=15    page=0  chnl=15
char id=117  x=161   y=0     width=19    height=32    xoffset=1     yoffset=0     xadvance=18    page=0  chnl=15
char id=118  x=828   y=0     width=17    height=32    xoffset=1     yoffset=0     xadvance=17    page=0  chnl=15
char id=119  x=29    y=0     width=28    height=32    xoffset=1     yoffset=0     xadvance=28    page=0  chnl=15
char id=120  x=421   y=0     width=19    height=32    xoffset=0     yoffset=0     xadvance=19    page=0  chnl=15
char id=121  x=882   y=0     width=17    height=32    xoffset=1     yoffset=0     xadvance=18    page=0  chnl=15
char id=122  x=32    y=33    width=15    height=32    xoffset=1     yoffset=0     xadvance=16    page=0  chnl=15
char id=123  x=63    y=33    width=14    height=32    xoffset=1     yoffset=0     xadvance=15    page=0  chnl=15
char id=124  x=465   y=33    width=3     height=32    xoffset=1     yoffset=0     xadvance=4     page=0  chnl=15
char id=125  x=48    y=33    width=14    height=32    xoffset=1     yoffset=0     xadvance=15    page=0  chnl=15
char id=126  x=320   y=33    width=10    height=32    xoffset=1     yoffset=0     xadvance=10    page=0  chnl=15
